EpiModelWHAMPDX Vignette
…
plot_dat <- make_epi_plot_data(simnet, plot.list)
plot_dat

## $plot_title
## [1] "Plot Name"
## 
## $plot_cap
## [1] "Example Plot Caption"
## 
## $plot_ylab
## [1] "Y-Label"
## 
## $epi_data
## # A tibble: 87,932 x 7
##     year name             value meas   sub_cat_name       cat_name simno
##    <dbl> <chr>            <dbl> <chr>  <chr>              <chr>    <int>
##  1 1944. Number.ovr       13989 Number Overall            ovr          1
##  2 1944. Number.H          1595 Number Hispanic           race         1
##  3 1944. Number.B           949 Number Black              race         1
##  4 1944. Number.O         11445 Number Other              race         1
##  5 1944. Number.EasternWA  1350 Number Eastern Washington region       1
##  6 1944. Number.WesternWA  4638 Number Western Washington region       1
##  7 1944. Number.King       8001 Number King County        region       1
##  8 1944. Number.1          1967 Number 15-24              age.grp      1
##  9 1944. Number.2          3634 Number 25-34              age.grp      1
## 10 1944. Number.3          3112 Number 35-44              age.grp      1
## #  with 87,922 more rows
## 
## $impt_years
##         name year
## 1 mtch.demog 2019
## 2 adap.start 2014
## 3 pdap.start 2017
## 4 prep.start 2012
## 5 cure.start 1988
…
